{
  "react-router": "0.13.3",
  "externalify": "0.1.0",
  "react-headroom": "1.6.2",
  "react-select": "0.6.9",
  "react-bootstrap": "0.25.2",
  "react-validator-prop-types": "1.1.0",
  "reactable": "0.11.5",
  "react-motion": "0.3.0",
  "diff": "2.1.3",
  "himalaya": "0.2.0",
  "react-burger-menu": "1.1.6"
}