{
  "dependencies": {
    "diff": {
      "version": "2.1.3"
    },
    "externalify": {
      "version": "0.1.0",
      "dependencies": {
        "globo": {
          "version": "1.0.2",
          "dependencies": {
            "accessory": {
              "version": "1.0.1",
              "dependencies": {
                "dot-parts": {
                  "version": "1.0.1"
                }
              }
            },
            "is-defined": {
              "version": "1.0.0"
            },
            "ternary": {
              "version": "1.0.0"
            }
          }
        },
        "map-obj": {
          "version": "1.0.1"
        },
        "replace-require-functions": {
          "version": "1.0.0",
          "dependencies": {
            "detective": {
              "version": "4.1.1",
              "dependencies": {
                "acorn": {
                  "version": "1.2.2"
                },
                "defined": {
                  "version": "1.0.0"
                },
                "escodegen": {
                  "version": "1.7.0",
                  "dependencies": {
                    "estraverse": {
                      "version": "1.9.3"
                    },
                    "esutils": {
                      "version": "2.0.2"
                    },
                    "esprima": {
                      "version": "1.2.5"
                    },
                    "optionator": {
                      "version": "0.5.0",
                      "dependencies": {
                        "prelude-ls": {
                          "version": "1.1.2"
                        },
                        "deep-is": {
                          "version": "0.1.3"
                        },
                        "wordwrap": {
                          "version": "0.0.3"
                        },
                        "type-check": {
                          "version": "0.3.1"
                        },
                        "levn": {
                          "version": "0.2.5"
                        },
                        "fast-levenshtein": {
                          "version": "1.0.7"
                        }
                      }
                    },
                    "source-map": {
                      "version": "0.2.0",
                      "dependencies": {
                        "amdefine": {
                          "version": "1.0.0"
                        }
                      }
                    }
                  }
                }
              }
            },
            "has-require": {
              "version": "1.2.1",
              "dependencies": {
                "escape-string-regexp": {
                  "version": "1.0.3"
                }
              }
            },
            "patch-text": {
              "version": "1.0.2"
            },
            "xtend": {
              "version": "4.0.0"
            }
          }
        },
        "through2": {
          "version": "0.4.2",
          "dependencies": {
            "readable-stream": {
              "version": "1.0.33",
              "dependencies": {
                "core-util-is": {
                  "version": "1.0.1"
                },
                "isarray": {
                  "version": "0.0.1"
                },
                "string_decoder": {
                  "version": "0.10.31"
                },
                "inherits": {
                  "version": "2.0.1"
                }
              }
            },
            "xtend": {
              "version": "2.1.2",
              "dependencies": {
                "object-keys": {
                  "version": "0.4.0"
                }
              }
            }
          }
        },
        "transformify": {
          "version": "0.1.2",
          "dependencies": {
            "readable-stream": {
              "version": "1.1.13",
              "dependencies": {
                "core-util-is": {
                  "version": "1.0.1"
                },
                "isarray": {
                  "version": "0.0.1"
                },
                "string_decoder": {
                  "version": "0.10.31"
                },
                "inherits": {
                  "version": "2.0.1"
                }
              }
            }
          }
        }
      }
    },
    "himalaya": {
      "version": "0.2.0",
      "dependencies": {
        "paul": {
          "version": "0.0.3"
        }
      }
    },
    "react": {
      "version": "0.13.3",
      "dependencies": {
        "envify": {
          "version": "3.4.0",
          "dependencies": {
            "through": {
              "version": "2.3.8"
            },
            "jstransform": {
              "version": "10.1.0",
              "dependencies": {
                "base62": {
                  "version": "0.1.1"
                },
                "esprima-fb": {
                  "version": "13001.1001.0-dev-harmony-fb"
                },
                "source-map": {
                  "version": "0.1.31",
                  "dependencies": {
                    "amdefine": {
                      "version": "1.0.0"
                    }
                  }
                }
              }
            }
          }
        }
      }
    },
    "react-bootstrap": {
      "version": "0.25.2",
      "dependencies": {
        "babel-runtime": {
          "version": "5.8.29",
          "dependencies": {
            "core-js": {
              "version": "1.2.3"
            }
          }
        },
        "classnames": {
          "version": "2.2.0"
        },
        "dom-helpers": {
          "version": "2.4.0"
        },
        "keycode": {
          "version": "2.1.0"
        },
        "lodash": {
          "version": "3.10.1"
        },
        "react-overlays": {
          "version": "0.4.4",
          "dependencies": {
            "react-prop-types": {
              "version": "0.2.2"
            },
            "warning": {
              "version": "2.1.0",
              "dependencies": {
                "loose-envify": {
                  "version": "1.1.0",
                  "dependencies": {
                    "js-tokens": {
                      "version": "1.0.2"
                    }
                  }
                }
              }
            }
          }
        },
        "uncontrollable": {
          "version": "3.1.3",
          "dependencies": {
            "invariant": {
              "version": "2.1.1",
              "dependencies": {
                "loose-envify": {
                  "version": "1.1.0",
                  "dependencies": {
                    "js-tokens": {
                      "version": "1.0.2"
                    }
                  }
                }
              }
            }
          }
        },
        "react": {
          "version": "0.14.1",
          "dependencies": {
            "envify": {
              "version": "3.4.0",
              "dependencies": {
                "through": {
                  "version": "2.3.8"
                },
                "jstransform": {
                  "version": "10.1.0",
                  "dependencies": {
                    "base62": {
                      "version": "0.1.1"
                    },
                    "esprima-fb": {
                      "version": "13001.1001.0-dev-harmony-fb"
                    },
                    "source-map": {
                      "version": "0.1.31",
                      "dependencies": {
                        "amdefine": {
                          "version": "1.0.0"
                        }
                      }
                    }
                  }
                }
              }
            },
            "fbjs": {
              "version": "0.3.2",
              "dependencies": {
                "core-js": {
                  "version": "1.2.3"
                },
                "loose-envify": {
                  "version": "1.1.0",
                  "dependencies": {
                    "js-tokens": {
                      "version": "1.0.2"
                    }
                  }
                },
                "promise": {
                  "version": "7.0.4",
                  "dependencies": {
                    "asap": {
                      "version": "2.0.3"
                    }
                  }
                },
                "ua-parser-js": {
                  "version": "0.7.9"
                },
                "whatwg-fetch": {
                  "version": "0.9.0"
                }
              }
            }
          }
        }
      }
    },
    "react-burger-menu": {
      "version": "1.1.6",
      "dependencies": {
        "browserify-optional": {
          "version": "1.0.0",
          "dependencies": {
            "ast-transform": {
              "version": "0.0.0",
              "dependencies": {
                "through": {
                  "version": "2.3.8"
                },
                "esprima": {
                  "version": "1.0.4"
                },
                "escodegen": {
                  "version": "1.2.0",
                  "dependencies": {
                    "estraverse": {
                      "version": "1.5.1"
                    },
                    "esutils": {
                      "version": "1.0.0"
                    },
                    "source-map": {
                      "version": "0.1.43",
                      "dependencies": {
                        "amdefine": {
                          "version": "1.0.0"
                        }
                      }
                    }
                  }
                }
              }
            },
            "ast-types": {
              "version": "0.7.8"
            },
            "browser-resolve": {
              "version": "1.10.1",
              "dependencies": {
                "resolve": {
                  "version": "1.1.6"
                }
              }
            }
          }
        },
        "classnames": {
          "version": "2.2.0"
        },
        "react-kit": {
          "version": "0.1.8"
        },
        "snapsvg": {
          "version": "0.4.0",
          "dependencies": {
            "eve": {
              "version": "0.4.2"
            }
          }
        }
      }
    },
    "react-headroom": {
      "version": "1.6.2",
      "dependencies": {
        "raf": {
          "version": "2.0.4",
          "dependencies": {
            "performance-now": {
              "version": "0.1.4"
            }
          }
        }
      }
    },
    "react-motion": {
      "version": "0.3.0",
      "dependencies": {
        "performance-now": {
          "version": "0.2.0"
        },
        "raf": {
          "version": "3.1.0"
        }
      }
    },
    "react-router": {
      "version": "0.13.3",
      "dependencies": {
        "object-assign": {
          "version": "2.1.1"
        },
        "qs": {
          "version": "2.4.1"
        }
      }
    },
    "react-select": {
      "version": "0.6.9",
      "dependencies": {
        "classnames": {
          "version": "2.2.0"
        },
        "react-input-autosize": {
          "version": "0.5.3"
        },
        "react": {
          "version": "0.14.1",
          "dependencies": {
            "envify": {
              "version": "3.4.0",
              "dependencies": {
                "through": {
                  "version": "2.3.8"
                },
                "jstransform": {
                  "version": "10.1.0",
                  "dependencies": {
                    "base62": {
                      "version": "0.1.1"
                    },
                    "esprima-fb": {
                      "version": "13001.1001.0-dev-harmony-fb"
                    },
                    "source-map": {
                      "version": "0.1.31",
                      "dependencies": {
                        "amdefine": {
                          "version": "1.0.0"
                        }
                      }
                    }
                  }
                }
              }
            },
            "fbjs": {
              "version": "0.3.2",
              "dependencies": {
                "core-js": {
                  "version": "1.2.3"
                },
                "loose-envify": {
                  "version": "1.1.0",
                  "dependencies": {
                    "js-tokens": {
                      "version": "1.0.2"
                    }
                  }
                },
                "promise": {
                  "version": "7.0.4",
                  "dependencies": {
                    "asap": {
                      "version": "2.0.3"
                    }
                  }
                },
                "ua-parser-js": {
                  "version": "0.7.9"
                },
                "whatwg-fetch": {
                  "version": "0.9.0"
                }
              }
            }
          }
        }
      }
    },
    "react-validator-prop-types": {
      "version": "1.1.0",
      "dependencies": {
        "validator": {
          "version": "3.43.0"
        }
      }
    },
    "reactable": {
      "version": "0.11.5"
    }
  }
}
